id,name,description,type_tax_use,amount_type,amount,sequence,chart_template_id:id
default_chart_a_tax_1,10% Honorarios por Servicios Independientes,R-ISR 10%,purchase,percent,-0.1,1,default_chart_a
default_chart_a_tax_2,ITBIS Exento en compras,C-EXENTA,purchase,percent,0,1,default_chart_a
default_chart_a_tax_3,ITBIS 8% Ventas,V-ITBIS 8%,sale,percent,0.11,1,default_chart_a
default_chart_a_tax_4,ITBIS 8% Compras,C-ITBIS 8%,purchase,percent,0.11,1,default_chart_a
default_chart_a_tax_5,ITBIS 11% Ventas,V-ITBIS 11%,sale,percent,0.11,1,default_chart_a
default_chart_a_tax_6,ITBIS 11% Compras,C-ITBIS 11%,purchase,percent,0.11,1,default_chart_a
default_chart_a_tax_7,ITBIS Exento en ventas,V-EXENTA,sale,percent,0.18,1,default_chart_a
default_chart_a_tax_8,ITBIS 18% Compras,C-ITBIS 18%,purchase,percent,0.18,1,default_chart_a
default_chart_a_tax_9,ITBIS 18% Compras Servicios,CS-ITBIS 18%,purchase,percent,0.18,1,default_chart_a
default_chart_a_tax_10,ITBIS 18% Compras Importaciones,IMP-ITBIS 18%,purchase,percent,0.18,1,default_chart_a
default_chart_a_tax_12,2% Otras Retenciones (Norma 07-2007),R-ISR 2%,purchase,percent,-0.02,1,default_chart_a
default_chart_a_tax_13,18% ITBIS Retenido,R-ITBIS 18%,purchase,percent,-0.18,1,default_chart_a
default_chart_a_tax_14,ITBIS 18% Ventas,V-ITBIS 18%,sale,percent,0.18,10,default_chart_a
default_chart_a_tax_15,ITBIS 18% Compras Includo,C-ITBIS 18% Incluido,purchase,percent,0.18,1,default_chart_a
default_chart_a_tax_16,ITBIS 18% Compras Servicios Incluido,CS-ITBIS 18% Incluido,purchase,percent,0.18,1,default_chart_a
default_chart_a_tax_19,ISC Telecomunicacones,TELE-ISC,purchase,percent,0.1,1,default_chart_a
default_chart_a_tax_20,CDT Telecomunicacones,TELE-CDT,purchase,percent,0.02,1,default_chart_a
default_chart_a_tax_23,10% Retencion por alquileres,R-Alquileres 10%,purchase,percent,-0.1,1,default_chart_a
